Intensivão de programação funcional em R aplicado à Geologia
…
```r
setwd("C:/Users/barba/Desktop/ProgramacaoFuncional_Geologia/ProgramacaoFuncional_Geologia/")

library(readxl)

dados.ex <- read_excel("dados_santos2009.xlsx") %>% 
  as_tibble()

dados.ex
```

```
# A tibble: 26 x 29
   Sample  Rock     `Distance from c~    Co    Ni    Cr     V    Sr    Rb     Ba
   <chr>   <chr>    <chr>             <dbl> <dbl> <dbl> <dbl> <dbl> <dbl>  <dbl>
 1 SUC I-~ Black s~ 2.3–2.7           19.2   6.47  16.1  23.2  33.5  1.1   49.8 
 2 SUC I-~ Black s~ 2.3–2.7            7.23  9.57  17.2  26.2 412.   1.81  25.0 
 3 SUC I ~ Limesto~ 2.1                6.65 10.8   16.3  23.2 604.   0.17 101.  
 4 SUC I ~ Limesto~ 2.04999999999999~  6.64 10.6   15.7  22.9 576.   0.18  72.6 
 5 SUC I ~ Limesto~ 2                  8.5  10.3   18.1  28.0 599.   1.89 139.  
 6 SUC I-~ Black s~ 0.6–1.5           10.7  12.5   24.0  37.1  77.6  8.48  43.2 
 7 SUC I-9 Stoliti~ 0.4                7.24 10.9   14.9  22.5 535.   0.1  106.  
 8 SUC I ~ Limesto~ 0.35–340           2.55  5.4   13.0  20.3  27.0  0.09   4.83
 9 SUC I-7 Black s~ 0.2–0.3           10.1   8.11  19.6  29.0  77.1  8.33  24.5 
10 SUC I-~ Black s~ 0.2–0.3            8.14  7.35  16.6  27.0  63.2 14.3   26.8 
# ... with 16 more rows, and 19 more variables: Pb <dbl>, Zr <dbl>, Yb <dbl>,
#   Nb <dbl>, Hf <dbl>, Th <dbl>, U <dbl>, La <dbl>, Ce <dbl>, Pr <dbl>,
#   Nd <dbl>, Sm <dbl>, Eu <dbl>, Gd <dbl>, Tb <dbl>, Dy <dbl>, Ho <dbl>,
#   Er <dbl>, Tm <dbl>
```
…
dados.ex
```

```
# A tibble: 26 x 31
   Sample  Rock     litho upper lower    Co    Ni    Cr     V    Sr    Rb     Ba
   <chr>   <chr>    <chr> <dbl> <dbl> <dbl> <dbl> <dbl> <dbl> <dbl> <dbl>  <dbl>
 1 SUC I-~ Black s~ shale   2.7  2.3  19.2   6.47  16.1  23.2  33.5  1.1   49.8 
 2 SUC I-~ Black s~ shale   2.7  2.3   7.23  9.57  17.2  26.2 412.   1.81  25.0 
 3 SUC I ~ Limesto~ carb~  NA    2.1   6.65 10.8   16.3  23.2 604.   0.17 101.  
 4 SUC I ~ Limesto~ carb~  NA    2.05  6.64 10.6   15.7  22.9 576.   0.18  72.6 
 5 SUC I ~ Limesto~ carb~  NA    2     8.5  10.3   18.1  28.0 599.   1.89 139.  
 6 SUC I-~ Black s~ shale   1.5  0.6  10.7  12.5   24.0  37.1  77.6  8.48  43.2 
 7 SUC I-9 Stoliti~ carb~  NA    0.4   7.24 10.9   14.9  22.5 535.   0.1  106.  
 8 SUC I ~ Limesto~ carb~ 340    0.35  2.55  5.4   13.0  20.3  27.0  0.09   4.83
 9 SUC I-7 Black s~ shale   0.3  0.2  10.1   8.11  19.6  29.0  77.1  8.33  24.5 
10 SUC I-~ Black s~ shale   0.3  0.2   8.14  7.35  16.6  27.0  63.2 14.3   26.8 
# ... with 16 more rows, and 19 more variables: Pb <dbl>, Zr <dbl>, Yb <dbl>,
#   Nb <dbl>, Hf <dbl>, Th <dbl>, U <dbl>, La <dbl>, Ce <dbl>, Pr <dbl>,
#   Nd <dbl>, Sm <dbl>, Eu <dbl>, Gd <dbl>, Tb <dbl>, Dy <dbl>, Ho <dbl>,
#   Er <dbl>, Tm <dbl>
```
…
count: false

.panel1-box-auto[

```r
*dados.ex
```
]
 
.panel2-box-auto[

```
# A tibble: 26 x 31
   Sample  Rock     litho upper lower    Co    Ni    Cr     V    Sr    Rb     Ba
   <chr>   <chr>    <chr> <dbl> <dbl> <dbl> <dbl> <dbl> <dbl> <dbl> <dbl>  <dbl>
 1 SUC I-~ Black s~ shale   2.7  2.3  19.2   6.47  16.1  23.2  33.5  1.1   49.8 
 2 SUC I-~ Black s~ shale   2.7  2.3   7.23  9.57  17.2  26.2 412.   1.81  25.0 
 3 SUC I ~ Limesto~ carb~  NA    2.1   6.65 10.8   16.3  23.2 604.   0.17 101.  
 4 SUC I ~ Limesto~ carb~  NA    2.05  6.64 10.6   15.7  22.9 576.   0.18  72.6 
 5 SUC I ~ Limesto~ carb~  NA    2     8.5  10.3   18.1  28.0 599.   1.89 139.  
 6 SUC I-~ Black s~ shale   1.5  0.6  10.7  12.5   24.0  37.1  77.6  8.48  43.2 
 7 SUC I-9 Stoliti~ carb~  NA    0.4   7.24 10.9   14.9  22.5 535.   0.1  106.  
 8 SUC I ~ Limesto~ carb~ 340    0.35  2.55  5.4   13.0  20.3  27.0  0.09   4.83
 9 SUC I-7 Black s~ shale   0.3  0.2  10.1   8.11  19.6  29.0  77.1  8.33  24.5 
10 SUC I-~ Black s~ shale   0.3  0.2   8.14  7.35  16.6  27.0  63.2 14.3   26.8 
# ... with 16 more rows, and 19 more variables: Pb <dbl>, Zr <dbl>, Yb <dbl>,
#   Nb <dbl>, Hf <dbl>, Th <dbl>, U <dbl>, La <dbl>, Ce <dbl>, Pr <dbl>,
#   Nd <dbl>, Sm <dbl>, Eu <dbl>, Gd <dbl>, Tb <dbl>, Dy <dbl>, Ho <dbl>,
#   Er <dbl>, Tm <dbl>
```
…
---
count: false

.panel1-box-auto[

```r
dados.ex %>%
* dplyr::select(litho, Pb)
```
]
 
.panel2-box-auto[

```
# A tibble: 26 x 2
   litho        Pb
   <chr>     <dbl>
 1 shale      2.73
 2 shale      2.8 
 3 carbonate  2.46
 4 carbonate  2.04
 5 carbonate  2.48
 6 shale      7.13
 7 carbonate  1.72
 8 carbonate  1.53
 9 shale      1.69
10 shale      4.56
# ... with 16 more rows
```
…
count: false

.panel1-bar-auto[

```r
*dados.ex
```
]
 
.panel2-bar-auto[

```
# A tibble: 26 x 31
   Sample  Rock     litho upper lower    Co    Ni    Cr     V    Sr    Rb     Ba
   <chr>   <chr>    <chr> <dbl> <dbl> <dbl> <dbl> <dbl> <dbl> <dbl> <dbl>  <dbl>
 1 SUC I-~ Black s~ shale   2.7  2.3  19.2   6.47  16.1  23.2  33.5  1.1   49.8 
 2 SUC I-~ Black s~ shale   2.7  2.3   7.23  9.57  17.2  26.2 412.   1.81  25.0 
 3 SUC I ~ Limesto~ carb~  NA    2.1   6.65 10.8   16.3  23.2 604.   0.17 101.  
 4 SUC I ~ Limesto~ carb~  NA    2.05  6.64 10.6   15.7  22.9 576.   0.18  72.6 
 5 SUC I ~ Limesto~ carb~  NA    2     8.5  10.3   18.1  28.0 599.   1.89 139.  
 6 SUC I-~ Black s~ shale   1.5  0.6  10.7  12.5   24.0  37.1  77.6  8.48  43.2 
 7 SUC I-9 Stoliti~ carb~  NA    0.4   7.24 10.9   14.9  22.5 535.   0.1  106.  
 8 SUC I ~ Limesto~ carb~ 340    0.35  2.55  5.4   13.0  20.3  27.0  0.09   4.83
 9 SUC I-7 Black s~ shale   0.3  0.2  10.1   8.11  19.6  29.0  77.1  8.33  24.5 
10 SUC I-~ Black s~ shale   0.3  0.2   8.14  7.35  16.6  27.0  63.2 14.3   26.8 
# ... with 16 more rows, and 19 more variables: Pb <dbl>, Zr <dbl>, Yb <dbl>,
#   Nb <dbl>, Hf <dbl>, Th <dbl>, U <dbl>, La <dbl>, Ce <dbl>, Pr <dbl>,
#   Nd <dbl>, Sm <dbl>, Eu <dbl>, Gd <dbl>, Tb <dbl>, Dy <dbl>, Ho <dbl>,
#   Er <dbl>, Tm <dbl>
```
…
---
count: false

.panel1-bar-auto[

```r
dados.ex %>%
* dplyr::select(litho, Co:Tm)
```
]
 
.panel2-bar-auto[

```
# A tibble: 26 x 27
   litho        Co    Ni    Cr     V    Sr    Rb     Ba    Pb    Zr    Yb    Nb
   <chr>     <dbl> <dbl> <dbl> <dbl> <dbl> <dbl>  <dbl> <dbl> <dbl> <dbl> <dbl>
 1 shale     19.2   6.47  16.1  23.2  33.5  1.1   49.8   2.73  9.47  0.14  0.81
 2 shale      7.23  9.57  17.2  26.2 412.   1.81  25.0   2.8  17.2   0.49  2.34
 3 carbonate  6.65 10.8   16.3  23.2 604.   0.17 101.    2.46 16.6   0.32  1.1 
 4 carbonate  6.64 10.6   15.7  22.9 576.   0.18  72.6   2.04 14.3   0.27  0.99
 5 carbonate  8.5  10.3   18.1  28.0 599.   1.89 139.    2.48 27     0.79  2.2 
 6 shale     10.7  12.5   24.0  37.1  77.6  8.48  43.2   7.13 48.2   0.84  5.01
 7 carbonate  7.24 10.9   14.9  22.5 535.   0.1  106.    1.72 10.5   0.24  0.84
 8 carbonate  2.55  5.4   13.0  20.3  27.0  0.09   4.83  1.53  8.8   0.13  0.65
 9 shale     10.1   8.11  19.6  29.0  77.1  8.33  24.5   1.69 24.6   0.38  2.72
10 shale      8.14  7.35  16.6  27.0  63.2 14.3   26.8   4.56 18.0   0.3   1.66
# ... with 16 more rows, and 15 more variables: Hf <dbl>, Th <dbl>, U <dbl>,
#   La <dbl>, Ce <dbl>, Pr <dbl>, Nd <dbl>, Sm <dbl>, Eu <dbl>, Gd <dbl>,
#   Tb <dbl>, Dy <dbl>, Ho <dbl>, Er <dbl>, Tm <dbl>
```
…
.panel1-bar-auto[

```r
dados.ex %>%
  dplyr::select(litho, Co:Tm) %>%
* pivot_longer(cols = Co:Tm,
*              names_to = "variable",
*              values_to = "value")
```
]
 
.panel2-bar-auto[

```
# A tibble: 676 x 3
   litho variable value
   <chr> <chr>    <dbl>
 1 shale Co       19.2 
 2 shale Ni        6.47
 3 shale Cr       16.1 
 4 shale V        23.2 
 5 shale Sr       33.5 
 6 shale Rb        1.1 
 7 shale Ba       49.8 
 8 shale Pb        2.73
 9 shale Zr        9.47
10 shale Yb        0.14
# ... with 666 more rows
```
…
.panel1-point-auto[

```r
library(ggpubr)

*dados.ex
```
]
 
.panel2-point-auto[

```
# A tibble: 26 x 31
   Sample  Rock     litho upper lower    Co    Ni    Cr     V    Sr    Rb     Ba
   <chr>   <chr>    <chr> <dbl> <dbl> <dbl> <dbl> <dbl> <dbl> <dbl> <dbl>  <dbl>
 1 SUC I-~ Black s~ shale   2.7  2.3  19.2   6.47  16.1  23.2  33.5  1.1   49.8 
 2 SUC I-~ Black s~ shale   2.7  2.3   7.23  9.57  17.2  26.2 412.   1.81  25.0 
 3 SUC I ~ Limesto~ carb~  NA    2.1   6.65 10.8   16.3  23.2 604.   0.17 101.  
 4 SUC I ~ Limesto~ carb~  NA    2.05  6.64 10.6   15.7  22.9 576.   0.18  72.6 
 5 SUC I ~ Limesto~ carb~  NA    2     8.5  10.3   18.1  28.0 599.   1.89 139.  
 6 SUC I-~ Black s~ shale   1.5  0.6  10.7  12.5   24.0  37.1  77.6  8.48  43.2 
 7 SUC I-9 Stoliti~ carb~  NA    0.4   7.24 10.9   14.9  22.5 535.   0.1  106.  
 8 SUC I ~ Limesto~ carb~ 340    0.35  2.55  5.4   13.0  20.3  27.0  0.09   4.83
 9 SUC I-7 Black s~ shale   0.3  0.2  10.1   8.11  19.6  29.0  77.1  8.33  24.5 
10 SUC I-~ Black s~ shale   0.3  0.2   8.14  7.35  16.6  27.0  63.2 14.3   26.8 
# ... with 16 more rows, and 19 more variables: Pb <dbl>, Zr <dbl>, Yb <dbl>,
#   Nb <dbl>, Hf <dbl>, Th <dbl>, U <dbl>, La <dbl>, Ce <dbl>, Pr <dbl>,
#   Nd <dbl>, Sm <dbl>, Eu <dbl>, Gd <dbl>, Tb <dbl>, Dy <dbl>, Ho <dbl>,
#   Er <dbl>, Tm <dbl>
```
…
.panel1-point-auto[

```r
library(ggpubr)

dados.ex %>%
* dplyr::select(lower, La, Tm)
```
]
 
.panel2-point-auto[

```
# A tibble: 26 x 3
   lower    La    Tm
   <dbl> <dbl> <dbl>
 1  2.3   0.66  0.02
 2  2.3   8.49  0.08
 3  2.1   5.98  0.05
 4  2.05  4.09  0.04
 5  2     9.56  0.12
 6  0.6  11.3   0.13
 7  0.4   4.49  0.04
 8  0.35  0.54  0.02
 9  0.2   5.16  0.06
10  0.2   3.07  0.05
# ... with 16 more rows
```
…
.panel1-point2-auto[

```r
library(ggpubr)

*dados.ex
```
]
 
.panel2-point2-auto[

```
# A tibble: 26 x 31
   Sample  Rock     litho upper lower    Co    Ni    Cr     V    Sr    Rb     Ba
   <chr>   <chr>    <chr> <dbl> <dbl> <dbl> <dbl> <dbl> <dbl> <dbl> <dbl>  <dbl>
 1 SUC I-~ Black s~ shale   2.7  2.3  19.2   6.47  16.1  23.2  33.5  1.1   49.8 
 2 SUC I-~ Black s~ shale   2.7  2.3   7.23  9.57  17.2  26.2 412.   1.81  25.0 
 3 SUC I ~ Limesto~ carb~  NA    2.1   6.65 10.8   16.3  23.2 604.   0.17 101.  
 4 SUC I ~ Limesto~ carb~  NA    2.05  6.64 10.6   15.7  22.9 576.   0.18  72.6 
 5 SUC I ~ Limesto~ carb~  NA    2     8.5  10.3   18.1  28.0 599.   1.89 139.  
 6 SUC I-~ Black s~ shale   1.5  0.6  10.7  12.5   24.0  37.1  77.6  8.48  43.2 
 7 SUC I-9 Stoliti~ carb~  NA    0.4   7.24 10.9   14.9  22.5 535.   0.1  106.  
 8 SUC I ~ Limesto~ carb~ 340    0.35  2.55  5.4   13.0  20.3  27.0  0.09   4.83
 9 SUC I-7 Black s~ shale   0.3  0.2  10.1   8.11  19.6  29.0  77.1  8.33  24.5 
10 SUC I-~ Black s~ shale   0.3  0.2   8.14  7.35  16.6  27.0  63.2 14.3   26.8 
# ... with 16 more rows, and 19 more variables: Pb <dbl>, Zr <dbl>, Yb <dbl>,
#   Nb <dbl>, Hf <dbl>, Th <dbl>, U <dbl>, La <dbl>, Ce <dbl>, Pr <dbl>,
#   Nd <dbl>, Sm <dbl>, Eu <dbl>, Gd <dbl>, Tb <dbl>, Dy <dbl>, Ho <dbl>,
#   Er <dbl>, Tm <dbl>
```
…
count: false

.panel1-hist-auto[

```r
*dados.ex
```
]
 
.panel2-hist-auto[

```
# A tibble: 26 x 31
   Sample  Rock     litho upper lower    Co    Ni    Cr     V    Sr    Rb     Ba
   <chr>   <chr>    <chr> <dbl> <dbl> <dbl> <dbl> <dbl> <dbl> <dbl> <dbl>  <dbl>
 1 SUC I-~ Black s~ shale   2.7  2.3  19.2   6.47  16.1  23.2  33.5  1.1   49.8 
 2 SUC I-~ Black s~ shale   2.7  2.3   7.23  9.57  17.2  26.2 412.   1.81  25.0 
 3 SUC I ~ Limesto~ carb~  NA    2.1   6.65 10.8   16.3  23.2 604.   0.17 101.  
 4 SUC I ~ Limesto~ carb~  NA    2.05  6.64 10.6   15.7  22.9 576.   0.18  72.6 
 5 SUC I ~ Limesto~ carb~  NA    2     8.5  10.3   18.1  28.0 599.   1.89 139.  
 6 SUC I-~ Black s~ shale   1.5  0.6  10.7  12.5   24.0  37.1  77.6  8.48  43.2 
 7 SUC I-9 Stoliti~ carb~  NA    0.4   7.24 10.9   14.9  22.5 535.   0.1  106.  
 8 SUC I ~ Limesto~ carb~ 340    0.35  2.55  5.4   13.0  20.3  27.0  0.09   4.83
 9 SUC I-7 Black s~ shale   0.3  0.2  10.1   8.11  19.6  29.0  77.1  8.33  24.5 
10 SUC I-~ Black s~ shale   0.3  0.2   8.14  7.35  16.6  27.0  63.2 14.3   26.8 
# ... with 16 more rows, and 19 more variables: Pb <dbl>, Zr <dbl>, Yb <dbl>,
#   Nb <dbl>, Hf <dbl>, Th <dbl>, U <dbl>, La <dbl>, Ce <dbl>, Pr <dbl>,
#   Nd <dbl>, Sm <dbl>, Eu <dbl>, Gd <dbl>, Tb <dbl>, Dy <dbl>, Ho <dbl>,
#   Er <dbl>, Tm <dbl>
```
…
count: false

.panel1-cor-auto[

```r
*dados.ex
```
]
 
.panel2-cor-auto[

```
# A tibble: 26 x 31
   Sample  Rock     litho upper lower    Co    Ni    Cr     V    Sr    Rb     Ba
   <chr>   <chr>    <chr> <dbl> <dbl> <dbl> <dbl> <dbl> <dbl> <dbl> <dbl>  <dbl>
 1 SUC I-~ Black s~ shale   2.7  2.3  19.2   6.47  16.1  23.2  33.5  1.1   49.8 
 2 SUC I-~ Black s~ shale   2.7  2.3   7.23  9.57  17.2  26.2 412.   1.81  25.0 
 3 SUC I ~ Limesto~ carb~  NA    2.1   6.65 10.8   16.3  23.2 604.   0.17 101.  
 4 SUC I ~ Limesto~ carb~  NA    2.05  6.64 10.6   15.7  22.9 576.   0.18  72.6 
 5 SUC I ~ Limesto~ carb~  NA    2     8.5  10.3   18.1  28.0 599.   1.89 139.  
 6 SUC I-~ Black s~ shale   1.5  0.6  10.7  12.5   24.0  37.1  77.6  8.48  43.2 
 7 SUC I-9 Stoliti~ carb~  NA    0.4   7.24 10.9   14.9  22.5 535.   0.1  106.  
 8 SUC I ~ Limesto~ carb~ 340    0.35  2.55  5.4   13.0  20.3  27.0  0.09   4.83
 9 SUC I-7 Black s~ shale   0.3  0.2  10.1   8.11  19.6  29.0  77.1  8.33  24.5 
10 SUC I-~ Black s~ shale   0.3  0.2   8.14  7.35  16.6  27.0  63.2 14.3   26.8 
# ... with 16 more rows, and 19 more variables: Pb <dbl>, Zr <dbl>, Yb <dbl>,
#   Nb <dbl>, Hf <dbl>, Th <dbl>, U <dbl>, La <dbl>, Ce <dbl>, Pr <dbl>,
#   Nd <dbl>, Sm <dbl>, Eu <dbl>, Gd <dbl>, Tb <dbl>, Dy <dbl>, Ho <dbl>,
#   Er <dbl>, Tm <dbl>
```
…
---
count: false

.panel1-cor-auto[

```r
dados.ex %>%
* filter(!litho == "volcanic")
```
]
 
.panel2-cor-auto[

```
# A tibble: 24 x 31
   Sample  Rock     litho upper lower    Co    Ni    Cr     V    Sr    Rb     Ba
   <chr>   <chr>    <chr> <dbl> <dbl> <dbl> <dbl> <dbl> <dbl> <dbl> <dbl>  <dbl>
 1 SUC I-~ Black s~ shale   2.7  2.3  19.2   6.47  16.1  23.2  33.5  1.1   49.8 
 2 SUC I-~ Black s~ shale   2.7  2.3   7.23  9.57  17.2  26.2 412.   1.81  25.0 
 3 SUC I ~ Limesto~ carb~  NA    2.1   6.65 10.8   16.3  23.2 604.   0.17 101.  
 4 SUC I ~ Limesto~ carb~  NA    2.05  6.64 10.6   15.7  22.9 576.   0.18  72.6 
 5 SUC I ~ Limesto~ carb~  NA    2     8.5  10.3   18.1  28.0 599.   1.89 139.  
 6 SUC I-~ Black s~ shale   1.5  0.6  10.7  12.5   24.0  37.1  77.6  8.48  43.2 
 7 SUC I-9 Stoliti~ carb~  NA    0.4   7.24 10.9   14.9  22.5 535.   0.1  106.  
 8 SUC I ~ Limesto~ carb~ 340    0.35  2.55  5.4   13.0  20.3  27.0  0.09   4.83
 9 SUC I-7 Black s~ shale   0.3  0.2  10.1   8.11  19.6  29.0  77.1  8.33  24.5 
10 SUC I-~ Black s~ shale   0.3  0.2   8.14  7.35  16.6  27.0  63.2 14.3   26.8 
# ... with 14 more rows, and 19 more variables: Pb <dbl>, Zr <dbl>, Yb <dbl>,
#   Nb <dbl>, Hf <dbl>, Th <dbl>, U <dbl>, La <dbl>, Ce <dbl>, Pr <dbl>,
#   Nd <dbl>, Sm <dbl>, Eu <dbl>, Gd <dbl>, Tb <dbl>, Dy <dbl>, Ho <dbl>,
#   Er <dbl>, Tm <dbl>
```
…
.panel1-cor-auto[

```r
dados.ex %>%
  filter(!litho == "volcanic") %>%
* pivot_longer(cols = Co:Tm,
*              names_to = "variable",
*              values_to = "value")
```
]
 
.panel2-cor-auto[

```
# A tibble: 624 x 7
   Sample    Rock        litho upper lower variable value
   <chr>     <chr>       <chr> <dbl> <dbl> <chr>    <dbl>
 1 SUC I-16B Black shale shale   2.7   2.3 Co       19.2 
 2 SUC I-16B Black shale shale   2.7   2.3 Ni        6.47
 3 SUC I-16B Black shale shale   2.7   2.3 Cr       16.1 
 4 SUC I-16B Black shale shale   2.7   2.3 V        23.2 
 5 SUC I-16B Black shale shale   2.7   2.3 Sr       33.5 
 6 SUC I-16B Black shale shale   2.7   2.3 Rb        1.1 
 7 SUC I-16B Black shale shale   2.7   2.3 Ba       49.8 
 8 SUC I-16B Black shale shale   2.7   2.3 Pb        2.73
 9 SUC I-16B Black shale shale   2.7   2.3 Zr        9.47
10 SUC I-16B Black shale shale   2.7   2.3 Yb        0.14
# ... with 614 more rows
```
…
