Intensivão de programação funcional em R aplicado à Geologia
…
---
# mutate()

- Modifica e cria colunas

```r
volcano %>% 
  select(volcano_name, country, latitude:elevation, last_eruption_year) %>% 
  filter(!country == "Antarctica") %>% 
  mutate(last_eruption_year = as.numeric(last_eruption_year),
         years_ago = 2020 - last_eruption_year)
```

```
# A tibble: 941 x 7
   volcano_name  country latitude longitude elevation last_eruption_y~ years_ago
   <chr>         <chr>      <dbl>     <dbl>     <dbl>            <dbl>     <dbl>
 1 Abu           Japan       34.5     132.        641            -6850      8870
 2 Acamarachi    Chile      -23.3     -67.6      6023               NA        NA
 3 Acatenango    Guatem~     14.5     -90.9      3976             1972        48
 4 Acigol-Nevse~ Turkey      38.5      34.6      1683            -2080      4100
 5 Adams         United~     46.2    -121.       3742              950      1070
 6 Adatarayama   Japan       37.6     140.       1728             1996        24
 7 Adwa          Ethiop~     10.1      40.8      1733               NA        NA
 8 Afdera        Ethiop~     13.1      40.9      1250               NA        NA
 9 Agrigan       United~     18.8     146.        965             1917       103
10 Agua          Guatem~     14.5     -90.7      3760               NA        NA
# ... with 931 more rows
```
…
```r
volcano %>% 
  select(volcano_name, country, latitude:elevation, last_eruption_year) %>% 
  filter(!country == "Antarctica") %>% 
  group_by(country) %>% 
  summarise(n = n(),
            media_lat = mean(elevation),
            sd_lat = sd(elevation)) %>% 
  ungroup()
```

```
# A tibble: 88 x 4
   country                n media_lat sd_lat
   <chr>              <int>     <dbl>  <dbl>
 1 Algeria                1     1672     NA 
 2 Argentina             14     3608.  1490.
 3 Armenia                3     3422.   775.
 4 Armenia-Azerbaijan     1     3029     NA 
 5 Australia              2     1878   1226.
 6 Bolivia                3     4877   1064.
 7 Burma (Myanmar)        1     1518     NA 
 8 Cameroon               3     2535.  1844.
 9 Canada                18     1954.  1182.
10 Cape Verde             1     2829     NA 
# ... with 78 more rows
```
…
- alonga os dados

```r
volcano_long = volcano %>% 
  select(volcano_name, latitude, longitude) %>% 
  pivot_longer(cols = c(latitude, longitude),
               names_to = "variable",
               values_to = "value")

volcano_long
```

```
# A tibble: 1,916 x 3
   volcano_name    variable   value
   <chr>           <chr>      <dbl>
 1 Abu             latitude    34.5
 2 Abu             longitude  132. 
 3 Acamarachi      latitude   -23.3
 4 Acamarachi      longitude  -67.6
 5 Acatenango      latitude    14.5
 6 Acatenango      longitude  -90.9
 7 Acigol-Nevsehir latitude    38.5
 8 Acigol-Nevsehir longitude   34.6
 9 Adams           latitude    46.2
10 Adams           longitude -121. 
# ... with 1,906 more rows
```
…
- alarga os dados

```r
volcano %>% 
  select(volcano_name, latitude, longitude, last_eruption_year) %>% 
  mutate(last_eruption_year = case_when(last_eruption_year <= 2000 ~ "before_2000",
                                        last_eruption_year > 2000 ~ "after_2000")) %>% 
  pivot_wider(names_from = last_eruption_year,
              values_from = latitude)
```

```
# A tibble: 958 x 4
   volcano_name    longitude before_2000 after_2000
   <chr>               <dbl>       <dbl>      <dbl>
 1 Abu                 132.         34.5       NA  
 2 Acamarachi          -67.6        NA        -23.3
 3 Acatenango          -90.9        14.5       NA  
 4 Acigol-Nevsehir      34.6        38.5       NA  
 5 Adams              -121.         NA         46.2
 6 Adatarayama         140.         37.6       NA  
 7 Adwa                 40.8        NA         10.1
 8 Afdera               40.9        NA         13.1
 9 Agrigan             146.         18.8       NA  
10 Agua                -90.7        NA         14.5
# ... with 948 more rows
```
---
# separate()

- separa uma coluna em várias usando um separador

```r
volcano %>% 
  select(volcano_name, tectonic_settings) %>% 
  separate(tectonic_settings,
           into = c("zone", "crust"),
           sep = " / ")
```

```
# A tibble: 958 x 3
   volcano_name    zone            crust                        
   <chr>           <chr>           <chr>                        
 1 Abu             Subduction zone Continental crust (>25 km)   
 2 Acamarachi      Subduction zone Continental crust (>25 km)   
 3 Acatenango      Subduction zone Continental crust (>25 km)   
 4 Acigol-Nevsehir Intraplate      Continental crust (>25 km)   
 5 Adams           Subduction zone Continental crust (>25 km)   
 6 Adatarayama     Subduction zone Continental crust (>25 km)   
 7 Adwa            Rift zone       Intermediate crust (15-25 km)
 8 Afdera          Rift zone       Intermediate crust (15-25 km)
 9 Agrigan         Subduction zone Crustal thickness unknown    
10 Agua            Subduction zone Continental crust (>25 km)   
# ... with 948 more rows
```
…
- junta várias colunas em uma usando um separador

```r
volcano %>% 
  select(volcano_name, volcano_number) %>% 
  unite(col = volcano_name, 
        volcano_number,
        volcano_name,
        sep = "_")
```

```
# A tibble: 958 x 1
   volcano_name          
   <chr>                 
 1 283001_Abu            
 2 355096_Acamarachi     
 3 342080_Acatenango     
 4 213004_Acigol-Nevsehir
 5 321040_Adams          
 6 283170_Adatarayama    
 7 221170_Adwa           
 8 221110_Afdera         
 9 284160_Agrigan        
10 342100_Agua           
# ... with 948 more rows
```
…
---
# unnest()

- desfaz a coluna de lista

```r
volcano_nest %>% 
  unnest()
```

```
# A tibble: 958 x 26
# Groups:   country [89]
   country volcano_number volcano_name  primary_volcano~ last_eruption_y~ region
   <chr>            <dbl> <chr>         <chr>            <chr>            <chr> 
 1 Japan           283001 Abu           Shield(s)        -6850            Japan~
 2 Japan           283170 Adatarayama   Stratovolcano(e~ 1996             Japan~
 3 Japan           282080 Aira          Caldera          2020             Japan~
 4 Japan           283130 Akagisan      Stratovolcano    Unknown          Japan~
 5 Japan           285070 Akan          Caldera          2008             Japan~
 6 Japan           283230 Akita-Komaga~ Stratovolcano(e~ 1971             Japan~
 7 Japan           283260 Akita-Yakeya~ Stratovolcano    1997             Japan~
 8 Japan           282022 Akusekijima   Stratovolcano(e~ Unknown          Japan~
 9 Japan           284060 Aogashima     Stratovolcano    1785             Japan~
10 Japan           283110 Asamayama     Complex          2019             Japan~
# ... with 948 more rows, and 20 more variables: subregion <chr>,
#   latitude <dbl>, longitude <dbl>, elevation <dbl>, tectonic_settings <chr>,
#   evidence_category <chr>, major_rock_1 <chr>, major_rock_2 <chr>,
#   major_rock_3 <chr>, major_rock_4 <chr>, major_rock_5 <chr>,
#   minor_rock_1 <chr>, minor_rock_2 <chr>, minor_rock_3 <chr>,
#   minor_rock_4 <chr>, minor_rock_5 <chr>, population_within_5_km <dbl>,
#   population_within_10_km <dbl>, population_within_30_km <dbl>,
#   population_within_100_km <dbl>
```
…
count: false

.panel1-teste-auto[

```r
*volcano
```
]
 
.panel2-teste-auto[

```
# A tibble: 958 x 26
   volcano_number volcano_name  primary_volcano~ last_eruption_y~ country region
            <dbl> <chr>         <chr>            <chr>            <chr>   <chr> 
 1         283001 Abu           Shield(s)        -6850            Japan   Japan~
 2         355096 Acamarachi    Stratovolcano    Unknown          Chile   South~
 3         342080 Acatenango    Stratovolcano(e~ 1972             Guatem~ Méxic~
 4         213004 Acigol-Nevse~ Caldera          -2080            Turkey  Medit~
 5         321040 Adams         Stratovolcano    950              United~ Canad~
 6         283170 Adatarayama   Stratovolcano(e~ 1996             Japan   Japan~
 7         221170 Adwa          Stratovolcano    Unknown          Ethiop~ Afric~
 8         221110 Afdera        Stratovolcano    Unknown          Ethiop~ Afric~
 9         284160 Agrigan       Stratovolcano    1917             United~ Japan~
10         342100 Agua          Stratovolcano    Unknown          Guatem~ Méxic~
# ... with 948 more rows, and 20 more variables: subregion <chr>,
#   latitude <dbl>, longitude <dbl>, elevation <dbl>, tectonic_settings <chr>,
#   evidence_category <chr>, major_rock_1 <chr>, major_rock_2 <chr>,
#   major_rock_3 <chr>, major_rock_4 <chr>, major_rock_5 <chr>,
#   minor_rock_1 <chr>, minor_rock_2 <chr>, minor_rock_3 <chr>,
#   minor_rock_4 <chr>, minor_rock_5 <chr>, population_within_5_km <dbl>,
#   population_within_10_km <dbl>, population_within_30_km <dbl>,
#   population_within_100_km <dbl>
```
…
