aula3 - visualização de dados usando o ggplot2
…
## Warning: package 'forcats' was built under R version 4.0.5

## -- Conflicts ------------------------------------------ tidyverse_conflicts() --
## x dplyr::filter() masks stats::filter()
## x dplyr::lag()    masks stats::lag()

setwd("C:/Users/barba/Desktop/ProgramacaoFuncional_Geologia/ProgramacaoFuncional_Geologia/")

dados <- read.csv("geoquim_granite.csv", sep = ";") %>% 
  as_tibble()

dados

## # A tibble: 3,050 x 116
##    X     Tectonic_setting Location_notes    Pluton  Colour Symbol Size_rel  Size
##    <chr> <chr>            <chr>             <chr>   <chr>   <int>    <dbl> <dbl>
##  1 CR03  OROGENIC BELT    ////////Peninsul~ Cape P~ brown4     16      1.6  1.28
##  2 BB202 OROGENIC BELT    ////////Peninsul~ Cape P~ brown4     16      1.6  1.28
##  3 CB02  OROGENIC BELT    ////////Peninsul~ Cape P~ brown4     16      1.6  1.28
##  4 HB02  OROGENIC BELT    ////////Peninsul~ Cape P~ brown4     16      1.6  1.28
##  5 CR01  OROGENIC BELT    ////////Peninsul~ Cape P~ brown4     16      1.6  1.28
##  6 LL01  OROGENIC BELT    ////////Peninsul~ Cape P~ brown4     16      1.6  1.28
##  7 MP21  OROGENIC BELT    ////////Peninsul~ Cape P~ brown4     16      1.6  1.28
##  8 OK07  OROGENIC BELT    ////////Peninsul~ Cape P~ brown4     16      1.6  1.28
##  9 LG05  OROGENIC BELT    ////////Langebaa~ Cape P~ brown4     16      1.6  1.28
## 10 BB201 OROGENIC BELT    ////////Peninsul~ Cape P~ brown4     16      1.6  1.28
## # ... with 3,040 more rows, and 108 more variables: SubGroup <chr>,
## #   Group <chr>, DebonPQ <chr>, TASMiddlemostPlut <chr>, Villaseca <chr>,
## #   QANOR <chr>, LaRoche <chr>, Geol_unit_notes <chr>, Rock_type_notes <chr>,
## #   Ref <chr>, Age <chr>, Latitude <dbl>, Longitude <dbl>, SiO2 <dbl>,
## #   TiO2 <dbl>, Al2O3 <dbl>, FeOt <dbl>, MnO <dbl>, MgO <dbl>, CaO <dbl>,
## #   K2O <dbl>, Na2O <dbl>, P2O5 <chr>, H2O <dbl>, H2Ot <dbl>, H2O.MINUS <dbl>,
## #   LOI <chr>, Li <dbl>, Be <dbl>, B <dbl>, Sc <dbl>, V <chr>, Cr <dbl>,
## #   Ni <dbl>, Cu <dbl>, Zn <dbl>, Rb <dbl>, Sr <dbl>, Y <dbl>, Zr <dbl>,
## #   Nb <dbl>, Cs <dbl>, Ba <dbl>, La <chr>, Ce <dbl>, Pr <chr>, Nd <chr>,
…
setwd("C:/Users/barba/Desktop/ProgramacaoFuncional_Geologia/ProgramacaoFuncional_Geologia/")

#install.packages("readxl")
library(readxl)

dados.ex <- read.csv("santos_2009.csv") %>% 
  as_tibble()

dados.ex

## # A tibble: 26 x 32
##        X Sample  Rock      litho upper lower    Co    Ni    Cr     V    Sr    Rb
##    <int> <chr>   <chr>     <chr> <dbl> <dbl> <dbl> <dbl> <dbl> <dbl> <dbl> <dbl>
##  1     1 SUC I-~ Black sh~ shale   2.7  2.3  19.2   6.47  16.1  23.2  33.5  1.1 
##  2     2 SUC I-~ Black sh~ shale   2.7  2.3   7.23  9.57  17.2  26.2 412.   1.81
##  3     3 SUC I ~ Limestone carb~  NA    2.1   6.65 10.8   16.3  23.2 604.   0.17
##  4     4 SUC I ~ Limestone carb~  NA    2.05  6.64 10.6   15.7  22.9 576.   0.18
##  5     5 SUC I ~ Limestone carb~  NA    2     8.5  10.3   18.1  28.0 599.   1.89
##  6     6 SUC I-~ Black sh~ shale   1.5  0.6  10.7  12.5   24.0  37.1  77.6  8.48
##  7     7 SUC I-9 Stolitic~ carb~  NA    0.4   7.24 10.9   14.9  22.5 535.   0.1 
##  8     8 SUC I ~ Limestone carb~ 340    0.35  2.55  5.4   13.0  20.3  27.0  0.09
##  9     9 SUC I-7 Black sh~ shale   0.3  0.2  10.1   8.11  19.6  29.0  77.1  8.33
## 10    10 SUC I-~ Black sh~ shale   0.3  0.2   8.14  7.35  16.6  27.0  63.2 14.3 
## # ... with 16 more rows, and 20 more variables: Ba <dbl>, Pb <dbl>, Zr <dbl>,
## #   Yb <dbl>, Nb <dbl>, Hf <dbl>, Th <dbl>, U <dbl>, La <dbl>, Ce <dbl>,
## #   Pr <dbl>, Nd <dbl>, Sm <dbl>, Eu <dbl>, Gd <dbl>, Tb <dbl>, Dy <dbl>,
## #   Ho <dbl>, Er <dbl>, Tm <dbl>
…
